2730864
3451531
984072
1223879
2812679
116949
1092969
1360823
1076051
1947270
2807570
137542
2308121
2369859
1277417
340230
2210689
3434919
596413
898124
1110949
2589120
1905968
896725
812151
3427232
2615802
1499854
2637356
62158
1425138
931311
3025339
601225
2933376
1701725
2633707
3140528
1329640
3528837
103186
2691755
1668893
234892
957326
3385562
2384821
522007
2074392
3150030
2362241
2981376
3386751
2871695
3475370
87900
2550719
859335
2424600
12398
2303512
3577417
685677
3257413
467446
1239295
1337558
3473371
157502
3563556
3317369
1117538
1872606
236875
3551333
1959411
2702606
1796237
3556849
3364246
2302734
174899
162899
1887424
2885096
1186842
18297
460690
1664673
3343690
1270845
1559881
3371260
2370340
1585366
3156205
3135452
1554377
1787205
2888933
2417146
234956
520192
110179
1818910
535355
1753427
2464094
3111830
2763940
1689164
1753147
2293350
3319493
2603849
2254562
156130
1089347
763890
3402369
1120438
1683999
2443481
785748
3271762
2265794
2144877
226172
701920
851199
3185690
3470781
2503685
1646864
829280
3584357
2947419
1915400
303983
509257
3395729
2646644
3290949
2787489
501879
3050152
2050733
41176
3572225
2763822
1281473
585976
1816937
1798915
3295491
2069762
330481
3552239
451634
2965831
30356
3420981
3373910
1630954
1043626
485535
3036087
1812373
3311765
1517623
1119197
2768839
1902894
1844489
1276452
2455867
485124
1112039
1569674
1897091
1607428
861928
3310535
1128534
2038711
2970312
210085
711167
3018647
3139201
920903
301822
2138943
505267
2630811
2297541
1706865
3469240
394148
2995555
3079063
3403607
382694
270662
2054411
964977
3012431
1447608
2789656
742700
1562379
657204
669970
1433230
2915076
1205356
3464857
3501298
1264197
76755
2706271
504706
2052316
1031061
2596374
2733199
1714754
344038
1848901
1739467
2211023
3454880
1250982
870811
1699565
3309820
1631218
1422418
714638
2570686
3544872
885093
3250421
1699688
656043
2100101
2165573
3625169
72917
999558
3468061
3249412
3174435
1935469
3397772
2157797
1677892
2794595
2882151
1687658
2919085
566069
3076253
3247297
2215614
3484073
742354
204142
1699775
657121
1485127
720179
2615276
3047588
1245481
207572
3376661
12159
120904
758320
2009700
431205
1474190
3125936
2428137
471066
1969140
2570046
1221001
3335331
3395870
2800393
1087283
2116178
1566519
443028
3071520
2473066
2122449
2858066
693501
1133655
3049717
2390955
2267346
1989952
2513141
2647509
1749849
3233934
3403287
1180346
2291448
474249
848280
1993115
3575176
123723
1069470
1245870
1584769
700078
2797309
3029914
265668
2470450
600650
942298
3410227
501815
2631571
3211904
945704
113326
1462827
2486038
1686841
1084222
2828644
1787121
3577025
2831027
1705188
396814
2697148
1883151
1406704
3582151
10552
2533888
984581
3304269
2010562
229625
180736
2805362
3513597
755443
2995556
1251315
720759
1385336
2098489
1702611
2827477
3562740
2479156
942627
28233
2735755
2124093
860949
1926569
143950
432076
2184968
941419
1423248
3556427
1443965
1828448
1818872
751684
1185327
1732813
1442286
2392613
879902
2649043
1372949
1686267
2149322
174264
406747
431218
2284252
2501856
148184
546433
171082
3126801
2723095
1084763
2741427
1869972
1788117
421327
1571776
64602
3335178
1730352
2417107
1339028
3520156
2778030
905792
3471023
1670212
2959637
108059
1473627
1355319
1043107
2440912
239057
1107056
2663062
2732988
1400622
1166405
1045883
795267
2967674
675037
1485387
504657
1177920
1286949
3583486
1671462
1123291
997439
450823
3049356
2600248
3089629
587610
109004
3389558
1557703
2166987
690930
2849748
631682
3344878
978121
2924363
1172299
2530554
482618
2048239
1133320
1647257
1253204
1999481
992141
300541
842136
2413790
446355
921138
677740
1074491
273084
2409882
3228949
3485749
2184411
1836755
492347
2891901
484949
3228207
2637157
1029943
1946106
1010790
606615
1449162
2935340
509140
2024003
3297105
1596044
1702982
3279364
2483436
2299850
1960444
502660
3338334
351822
2929248
3305252
3158337
3223812
93682
623310
3051928
589148
754607
3023295
1050563
900724
2537344
3395888
3369417
2189179
2685374
355646
2826595
741332
2164391
931932
3125721
3043044
2806960
2711693
1560051
1081169
1303265
1712821
3002976
2527429
1930231
1390657
3491276
2667420
168762
980274
2383434
2809231
2812356
571102
164804
3563071
1426904
2712255
3265404
1293526
2918763
1199105
2898269
2911189
3530197
746246
1896216
962471
3609054
2144673
1424930
2081668
2172858
3245484
3494045
1370650
629288
1069806
3183101
1004262
89773
2498763
1358568
1427841
1362094
1109193
2036350
663415
3387494
2695575
3283840
3552201
2952000
1608722
679963
111324
1631349
1957631
2171328
3447987
1012141
647979
2251780
3440429
350538
982827
1880307
2495997
850349
1240669
2264259
33582
762744
1691588
3411414
2488702
1360766
2836542
2248027
2920865
3437504
2418601
2765199
1751368
531596
1107827
1140868
3260688
166581
1930292
1442417
924923
2734909
2288117
3307519
3184438
1384092
276284
2366372
149366
3587656
3299298
1530840
195279
2143428
2800298
3411923
2194911
1845691
895616
3175247
3550368
2477035
1910091
1655340
1160211
1084122
3565825
530332
1777912
1773459
2243769
2959384
1721972
2841986
2006522
1891491
2365051
1691254
505106
453372
1663087
625253
213260
2562400
1165888
789
2539768
834155
3442229
321312
220207
2858078
2068487
1094024
2648238
2818415
1463220
2361642
1585253
3286717
3202243
1245243
1386585
3307829
201670
2010787
1474696
1554770
1057099
2995818
534902
3093370
51717
1761891
1057800
9167
331116
2294825
431330
1077626
2796367
2527572
3605686
583160
35231
2189217
2991957
732407
1403715
1331768
828087
532534
735198
1003655
1611808
1658720
1730567
2327926
2121313
1293289
258480
2861437
820947
3267493
1373597
1572158
3156525
3059753
2894715
1169580
2425703
101510
403401
2066137
352290
1768812
179857
3027090
2866541
3625583
1868775
1950381
2440271
2406829
585616
1513780
409575
3336574
3094725
325403
2549823
2427663
1580144
2203980
234826
3371302
1722251
2089050
3539505
3397576
2930891
2750771
494539
3366337
2776388
221964
3376248
3004755
787295
1731978
182250
2144118
1854550
1857347
627916
134794
72401
447885
2016818
3564747
230452
1444961
99093
2624616
645197
2008157
527440
3478511
1594053
151466
1111611
284522
676113
508891
1964266
3504793
3054136
3511739
189416
3276062
1158438
2724868
2853652
2696910
2619715
1762599
1569905
2576882
1650243
2566612
136800
3353407
1889717
213869
3326980
2282694
1331483
435657
2705399
1965432
2352263
1129453
1470413
1664554
739130
1511525
2693734
414107
394153
818714
3198284
104319
673579
1536794
3370389
1349824
2419060
75096
1504066
2078063
639540
69721
1996346
3165917
3116607
1479627
682859
400045
204825
105297
2719475
3388294
101616
2537533
3616344
1516907
1217625
1283424
1848466
3618581
3320307
3002170
1332956
3263534
2555864
2276104
319743
328448
616457
3486268
1265238
1655290
255219
1285795
1884009
2747589
92024
1754981
679963
777800
1515735
3095098
2613820
894713
2140575
2700599
3250794
1317493
1072969
2892364
3467862
2727499
2747194
1217530
2909079
2876059
2726219
884208
3277252
1648535
1668567
2730058
1748769
1350941
2322860
3362903
3382939
2326277
1594720
1807731
2430780
2188470
3137110
2050336
1197548
1018415
2489866
246171
252002
2085735
879067
2649815
2090174
518422
1706002
56006
1726593
1233135
378775
824454
3467316
2861695
424166
2550854
2952026
351874
103826
2211526
3135488
686237
2297255
2002424
887850
448601
52120
1920806
1680860
2685908
170176
772031
18540
1615502
3584907
2525772
505927
2538313
1263491
572200
85842
3554885
3023975
3005640
1859168
2824676
2877115
2653365
1087924
1721997
1831779
2635478
311190
1859059
1687251
2587407
2192748
2995442
1853944
2372384
1118280
195501
523817
1829651
1138725
2391648
99320
784941
1919157
3152819
2337285
1030736
1561606
3347102
1180668
2313870
699344
2075571
1684282
3593118
2586273
2763542
301753
2606626
2899122
999184
1291056
622193
331391
3354417
2742077
1052280
2445060
728231
86545
1802341
2920854
1903361
289891
131604
2084097
2611247
1194979
2436186
1946708
1158734
519613
1585385
801177
3500154
2688358
2420196
1068221
1285363
3418572
3390407
783807
1892216
1084897
910477
526016
1194698
406108
3557170
1174479
800334
398149
549847
533283
2202946
2431488
1441998
2323923
2341422
2281818
672699
2802721
1491001
1352834
587728
3437161
2165609
2479221
460590
180116
2275152
3515819
2410519
3320510
2314915
1207773
3348892
498427
756734
2176413
1887179
202100
3598190
398533
599552
1387139
2282508
1379289
3620473
2440116
1509508
1183585
2310056
1561656
271180
2690475
423757
3466811
2144404
3388685
2926985
721018
817306
234106
1325859
644977
182722
1905605
1043531
3073114
2452600
3430194
1030258
3263111
1033308
1006280
112347
404321
644998
737402
674429
2106089
2228534
3026420
2775916
2650513
905535
76476
3514298
3532814
3019235
2055380
3356770
754595
1985183
205318
1422650
1829659
1496450
1982507
3007079
98935
1125310
169836
1403445
2226718
102817
995131
1730198
2957185
697107
167190
143540
2595269
191661
2158848
111909
3250831
1414010
3316744
3069698
2458562
3603887
3031814
881859
1750716
837302
768894
3386389
561974
533864
1873115
3065699
1697625
831853
1515477
261051
3241000
2105878
3548977
832789
969314
3103717
3155119
1607313
2694863
2401034
2767503
1433809
3533725
503495
903328
1432545
1994851
3341000
3445959
732266
965523
1785887
1238319
484740
2646069
90310
1915416
899384
803150
2224533
722813
3540389
1694173
2340678
2420122
52230
1802195
2584115
2592586
1855711
801900
2061046
678493
811702
176581
870880
3340020
2223604
1437420
1348641
1657672
145
3249409
1033220
591940
45593
2892523
1589057
1296842
221647
2082750
2997490
781208
734054
832623
977927
451080
126294
558480
2762141
768945
1097994
3149448
450142
3102279
1022298
2200886
2706708
896349
158754
2470467
170780
611945
40999
1979651
514338
834043
1314306
2479904
1828329
337239
2768145
2223990
653861
2100428
3111666
1584235
317499
1938993
3191966
1158390
339022
2468045
1435310
3467163
1735697
2338240
1766704
597433
3449303
5017
3121338
3469706
2240063
2721883
1561202
783078
374155
1116474
1968709
2885353
684081
1536840
551733
823906
446779
21396
3196811
395966
3142625
3081274
2184139
2336352
2437407
2945686
2695521
1148683
422395
2127043
3391038
470680
2579571
1673796
164320
2345691
485441
2887762
3360776
3157405
2374337
3275828
1589575
2746382
109816
3526714
1195065
2590514
54843
528820
561993
1506484
3092397
1484200
3526025
1305353
309587
2212278
369014
2669196
936948
2741480
2767333
2914125
3490432
1454208
2579910
285752
1565130
1648166
2764247
2743682
544654
2908198
1470190
1457831
533872
81787
3505293
3310368
2812651
852607
1888021
3346712
2142098
2390684
791600
2449116
2845587
253881
1652714
2246172
1728823
2327278
1625949
2808704
967701
163963
1909056
2707736
2350087
3407370
2666510
541673
1123088
1654683
1475982
1732538
1325637
1377936
3202915
1382306
1368142
658655
2201888
1371269
803045
105728
1041349
1768484
2762524
252883
2144253
73028
2755517
859767
472180
2960127
331963
3418925
448563
2714323
2294178
1585851
1465148
2117691
3314226
609455
3001001
1413079
1794427
1169123
1336976
2041098
1772975
3328021
3254718
2500565
3338085
26173
831608
2968721
3080302
3021204
2884331
789754
2740900
1924858
551047
1278060
2197170
1196019
3334488
1403719
2511660
2671602
2001619
3513647
2769815
3320010
1120764
1197785
2272729
1053540
605577
2025600
1408460
1713137
1324524
2555121
1720379
2272763
2214427
2192372
1720740
2261389
1312765
2735686
1312151
1025950
2963948
1197444
2739180
86549
3018875
173627
2856757
214985
2572665
2199544
642427
2423200
123926
1215637
948563
187999
295762
1982584
2154132
1712012
2767119
3488535
2269971
364376
344693
2574716
660565
3310052
3614531
1370314
1717008
3317697
1795373
2348268
190940
480183
617942
2478013
196463
1648060
2854355
3307469
978294
721537
1101612
2485157
77230
1457078
2398743
3499440
2516512
888762
1823884
2785745
32888
1399484
2148097
3401763
3005339
2584102
2747938
1124163
695932
460336
3321950
2075276
2812884
212091
1039626
2463809
1074578
804373
1608506
904740
69032
459513
583497
1343781
2283870
1448875
759373
3275122
531170
3247523
1004194
1212563
2744839
3408255
3612482
1545064
1451086
2081882
3243646
3184986
365388
2525679
2085486
864067
472048
3051936
2751254
1962506
611167
3043562
2675391
764935
2142488
2632995
2792259
3218228
1529161
2979272
1942504
2566212
2859232
3185380
1840877
3313111
1618027
323065
828470
2580010
314391
2241825
1884300
2420222
48717
3135870
790316
1009448
2946119
3338091
3351962
2362284
841140
2981550
399585
1132268
3280234
342672
71571
1513911
3463108
2424843
1875145
1643878
2057024
2505689
188747
2178438
3292999
2690351
2532915
248533
2750571
56081
1907998
2100228
978824
1818002
828394
3395913
797526
2316030
2652065
1267441
3329521
3224014
409812
2425544
1106796
281700
3099763
1984784
2447529
1208658
2823777
1687870
2843093
1717597
921154
2791009
2829153
1976479
2845644
2945298
2092141
547629
226082
1524798
266336
1685617
3323864
1676121
830785
2729441
3568675
2988975
1262820
830466
1040945
259297
2379067
504201
993480
683920
2480594
2160693
3294716
218746
345450
2852185
363000
2247904
3160878
1035969
525005
1578539
2869001
3453569
1037023
2925892
3315737
2666105
2472598
1658031
787641
153557
1161431
330920
2375903
1210445
1339167
2033624
3525352
3608289
3099922
1170380
746161
2171174
199888
959067
1366469
2924487
794478
3482377
1997409
3010925
954470
2614678
836004
54014
1021405
1208871
2874268
1427524
112667
778091
74820
392233
2916530
2503763
1487508
3013642
3137691
632236
2335036
2379094
2316819
630292
1043820
826698
3039471
2017255
715689
1030720
1727867
3620495
1700390
2224432
1916641
1913616
2100889
3256528
483884
2879173
2290380
1359403
1576069
275116
3084553
537139
2376579
2797763
1359245
1250991
3431051
815898
396450
713634
2224385
2480172
2371799
3108861
577882
433087
1799463
1989314
1669543
1583950
2508431
2026641
1240834
852
3238944
3492352
3421638
927631
3149849
540424
1795634
350743
59811
2106065
2837202
979640
509842
1375926
2221571
1605754
3142742
1159913
2296796
1120628
353083
3228150
2470523
121256
1832540
387196
2372693
3528769
2836024
3551200
3040705
1962005
2118970
3480273
2547421
1756679
2237120
882968
1451305
1068141
3318263
106270
1563233
951677
789020
2089178
1426992
1185978
828247
61256
1988087
152872
1144302
509640
1840562
354987
1025112
1270986
2035313
1527586
3027222
456426
640093
3014186
183302
164662
2898681
2992257
2222229
1843167
294821
1938726
2203397
509504
2691548
2836353
1368713
2242949
1259396
1917489
789248
3204239
1126687
2858366
6357
161539
2925034
402147
112788
2439867
2065600
3133731
983170
347756
1479588
2434273
9110
1756334
2366782
1120014
987817
466935
136860
144179
3452799
2141530
2552933
1581823
194665
975153
533514
1289410
2264991
180346
2727379
2531838
18652
2054819
439352
756228
227657
3378510
418950
863924
2615071
1219790
3112343
3058510
1052465
1807502
2057500
2651800
2534538
1975242
2909155
3110693
28719
3094862
125630
2950754
726752
1510767
3045527
649388
1517193
1816379
3129901
231152
921758
2753620
817106
2627515
1705752
745338
3237238
801825
850203
2808907
3249052
1538171
971986
3153208
565065
417352
2958001
3097068
1126973
3536058
502695
2813050
1413726
885206
369609
2472130
99928
1621112
2099826
1009751
2794606
717457
135379
1258854
1814764
419703
385657
2460734
115281
1069105
3105016
477869
1694261
1463573
84230
330310
302879
3301562
2097264
3386743
2354020
909688
2715810
1942221
105970
1692847
1269775
3167857
464770
655852
2685294
2433351
2551003
1549361
515492
1188781
2965634
625469
679351
128763
880926
1778869
3369903
2515540
2275568
2936300
627359
2725501
3618772
1339844
1101674
2622235
2766377
3348019
2228678
2897109
1713312
2409056
892635
1668890
2553962
66962
748212
3170195
1594313
633349
2758423
2103767
596381
3167704
3028411
3188926
1600374
3251819
2155654
2829506
1265238
2102871
689509
1087314
1714959
2145757
2636432
195443
2645467
2992271
1806624
358450
3166192
2845961
521094
1965764
2549951
755927
1547208
2867384
2518341
1426011
3002263
3268553
1953743
222929
2979525
796824
612382
3078038
2229962
1798393
2930761
2642083
953505
121081
2532202
683561
124106
138226
2548710
306704
377362
1637258
688016
2318261
1269562
371735
2141630
892419
1823034
2976896
773273
1682068
973460
2811247
1225786
2692886
3146664
1186253
1092155
713165
1266510
2988585
2752328
653260
1498278
279860
2765079
1880772
1395626
1369507
1674111
1076776
3328098
3573597
1641765
2600879
934670
139145
1457439
2513929
2325154
614337
1001867
3198692
2267022
3255703
1848396
1453869
514248
2869452
1418311
468040
1751991
1840529
888197
29867
2107933
2186482
2884326
2025867
371847
345228
1237125
432095
3590673
1730603
177753
3473684
2010902
1349421
711067
1868234
2476339
266763
3582255
2621992
1517174
2373908
939125
1969308
244492
1600497
2398892
647965
3206157
474478
2767997
3275693
1843659
50860
162433
3001948
522879
1762250
2714693
3207674
3155863
2118311
3107680
1021003
1741046
2013186
1044423
3528011
5098
645896
654447
2852533
1532321
805939
223875
297374
3618198
3348236
1764103
334095
1109382
1301526
2492086
489350
1860697
3310979
312351
872642
1509307
2112325
2643036
325540
644309
385280
2717725
2343096
1763596
103999
3279334
3609791
473144
1991784
1144778
1123101
3503373
1757020
2227902
164772
3520384
2314674
3383597
1442990
64175
88001
790384
3023262
2996037
2001118
699208
778957
2282045
2597533
1066075
1809004
1528862
3302566
1754548
1977611
691593
2149775
91604
3538798
2311431
1277793
3214472
3487027
1072064
1531845
2437714
1029377
613083
379212
3381507
650275
709100
2611649
1988338
1840849
3352988
1198485
1569314
2370726
2357653
1628049
2796513
2927585
3565590
4501
133895
3177202
2210317
3397747
451745
157911
2679445
635524
3450587
233426
1102358
933916
2412645
421612
2140185
2363870
1463573
3445991
3059407
1004133
1949493
2652379
3476529
2608040
2823145
3028426
1108052
2163062
2893100
1960471
1444003
830058
792105
757739
1750518
1931111
3076900
1668307
2745107
2520942
3249472
2962910
5273
2431837
186509
1044154
1578194
2353565
1789290
2104756
338122
3193751
2167215
3168269
948781
2310014
533258
2895931
943848
1358051
2752615
2996911
1613806
1231865
2248090
3596260
1236989
1677857
380186
943610
397929
792482
1763710
1706531
2920201
504781
1255245
2612235
1857115
211808
165330
1991473
2850140
2044173
2973321
3491969
1574422
1758999
3153372
1823779
2080402
2601217
1408844
2783435
1252121
1212588
3118075
3398203
2869778
616342
1016081
119453
645857
575712
941124
3293192
1258647
1000965
1600871
2630351
2224890
2254823
1351524
94218
1020917
3197346
3239211
3293716
2513713
1465480
3480200
2484554
1896352
3075520
306833
1712391
178072
2583537
832982
2532749
2745093
755635
738024
1270498
2065897
2277721
1984101
2162266
3558378
3320753
2241099
2053850
1159480
3131181
339129
2448010
1238156
1746515
825590
779092
281008
3306541
2577193
2636159
3344762
1893396
255322
322308
121783
1944373
2876552
2148215
2781430
926337
215924
2724156
2443260
966555
1507586
323047
2959783
2340112
965259
152347
1223996
3527
1751808
3618111
1566193
1293743
73326
3235486
2025069
597615
2672708
735537
2222878
358554
1391788
724443
2674863
2458640
1251231
912456
248203
2599840
1366287
2926475
1534798
1566311
971310
25426
1372897
2580191
1726279
3263390
1403495
1233182
801751
1395290
509592
2450492
1469178
193686
3616482
2750970
3230800
3394957
2463235
2529746
1981076
2774588
1398412
887135
1172566
1005896
2391004
1094747
2221020
2815256
1349395
2054257
1820375
655829
143114
2085351
1978477
187749
1978312
633470
3500393
3554275
1627623
1714540
2920606
572141
1368250
2620052
2396158
3270124
2033475
531282
1004775
2998305
2474308
2160242
804472
1180824
2553209
1788774
1348707
1404956
2506968
1933932
2655277
1176371
1756864
274635
1538565
2577275
2062653
2172347
546843
2592676
972616
2771049
2016954
2189514
2935713
2458269
1167149
2164000
2045322
1810391
3052404
1377850
3036606
1881075
645782
1810706
2422606
2294924
3069823
3454517
1258754
241184
776796
230996
2947402
2978940
2216978
751891
1726523
2412703
3435688
3346534
2219497
938323
3167487
1837042
240451
1219494
958955
2436526
2635655
1258732
1760047
530027
3120499
2498498
1082139
1615770
2595514
653067
2871086
1051395
2084061
1454558
2916111
908379
523676
2127207
2733517
604644
2259527
682733
3398754
2284387
700175
1721176
1254278
1897073
3082739
357796
1502969
2721022
3430293
171091
36779
2566974
1236431
1126670
3590086
352608
36274
1491889
2911592
3488150
515672
1864473
383078
2935868
3588815
1446271
2862972
1114056
2103582
3273349
3431452
1307893
36619
2471844
76945
2811519
357312
839090
3000383
3483131
2699564
2499384
2210378
1448333
49414
566949
1706520
1991992
2740426
9418
638788
3023444
1817523
3322225
1710249
3281015
726646
1320903
3478474
3322197
3142671
1036243
1419089
982201
1010645
519523
2128096
815960
3575035
2212460
1653079
1171843
3158171
1019573
1167737
809643
1471122
2912340
458342
231165
1968638
1547780
359501
2641507
1947343
1325728
3372721
57601
161223
1975240
3294167
2436405
2488899
2929766
1350350
710164
2771082
2445808
558919
3340020
1214654
3610331
979407
1958914
1984629
499814
2459571
1371829
2003693
882990
728604
2410762
2315579
2527695
3487348
3102232
94131
3216689
579801
285420
1436395
3593249
789109
3546574
2669744
1575820
1848319
1617641
2213103
3534929
681344
3231918
243377
966255
825857
1164057
2177920
2667575
1020298
660348
2581809
3220026
221381
1876992
1079143
3378240
1986869
689901
2722669
3066662
2475210
1542558
1003319
883706
677171
1609484
761258
20254
2793704
155154
2569807
2618684
238346
3449611
3122576
3216681
211566
221955
2755130
853676
1247263
726476
1751267
816638
309964
2399891
455185
2824282
2310494
1450710
3557397
989958
148454
1210140
2478583
3278017
734817
3007170
490341
2965649
431219
1207613
1195812
2016892
938656
1653306
137540
140210
3138250
3083834
3453694
1222887
2033902
487972
35405
2342213
2183418
73912
3093102
1145971
2627311
1534714
1834246
2810653
2755258
348679
3271183
286512
601339
742029
3252268
14917
1985584
1750790
2461367
180742
1633428
3327851
816189
2792738
185673
2422955
332252
1011282
3503863
3208472
1888364
3201461
3492783
2031807
3244682
1126534
2346032
2821830
3263981
2390943
2086974
1284812
3281508
2500622
1819465
2541056
2289907
3176049
1635440
1802584
3131965
2575947
1884803
1887667
3223120
1550156
422716
3253382
2171000
268685
1617814
3233154
3596221
694470
2123178
2959284
1573673
3129150
2999159
1264045
1726262
1371549
2585744
846953
1156972
838964
204044
3395913
1041403
1187320
3486756
2512969
37639
2231520
522764
569584
1884445
2373162
1634300
2048989
2039673
3520354
1332726
3309280
887128
1185863
1553652
3083143
804189
3394565
355845
1592924
2747666
551151
1812632
179279
3373292
811733
153400
2799600
2726387
1188009
854278
1075191
2264516
1968128
3344385
2572298
3423209
3358536
990731
3007542
1355032
725407
2653040
1166894
810289
2603023
1420559
503118
683116
1246262
2609823
94140
3395619
1788323
2030102
2306881
1178093
1045527
3404870
1557839
2789067
2637022
2031509
1030008
202108
2746953
1361230
2128734
3328355
2704043
263894
1428143
3523844
2836820
2190580
1656723
1821271
1340367
1161093
3033848
93129
3520467
2903935
1239905
1798002
1388646
971407
1154176
3239075
769097
1924174
1497653
1084318
392241
1890029
2602430
425279
25653
2062931
185745
1975233
3467224
2002197
3515055
2651888
916859
2303241
2047621
2013698
1868409
2369706
2702357
187054
3484854
811883
2478973
552085
1286503
1910179
1909295
2962436
2301987
783942
3144971
2341005
1939542
2021682
522117
3503363
244685
1532169
517976
1869157
766401
2556967
1634610
606989
1356325
2387184
152014
935349
1116874
95074
3179235
3158488
2598269
2899902
3512573
2956461
2563779
3522993
662
3337067
1103436
347440
2826044
829806
134743
2323661
1035346
2123688
1200361
863250
356099
2092307
3134072
360471
3243166
2659967
1408865
768520
2975864
1737355
876320
3558854
2937503
3346653
3525398
355364
111138
2523334
1149351
382318
3537105
2850313
1918163
199134
2695899
3567247
1826539
824393
2929328
1652086
3289
1789450
3223260
2842141
3028218
946780
462576
1013381
1289475
2131819
3390174
958206
354031
3592597
7176
2495094
3579652
277736
100327
955596
3465001
1443521
1784735
1049638
1387571
2066250
733830
2679595
3507115
214072
1460016
835809
3132897
3309988
1407225
1285681
1395922
139603
2923327
762306
2885729
1230986
1447366
3155260
330639
2402457
3572941
1589188
2699781
2342231
2510753
75818
3422158
3199092
1121892
158013
2269753
3405326
146875
3327666
1757285
1250997
2897806
2930640
1848949
1842872
3374903
1768100
3069213
940594
1051100
603369
246024
58051
1268354
1489855
2293252
764097
235347
2144514
3429022
3101856
2017039
2696379
3534484
2429386
1102922
2938974
1094280
103872
108457
2853623
1383281
2039828
2588657
1938116
1345434
2290364
1486160
2611523
1466728
326517
273510
1666632
3223236
1426229
212075
830466
366735
2101219
78250
1245405
3413459
62513
2565173
438531
3247705
2646661
294907
3023096
38192
303773
1859908
165254
2125263
2736821
869507
2631665
2183001
1844306
1717682
1331642
1085704
224316
107657
2538616
2850742
2129726
1417211
3349659
3449155
2672346
3388008
924778
3437378
2778339
2423252
1021777
2586214
2346230
778119
2941085
3227395
2200985
3651
1935626
3151803
255843
2682549
528376
3553408
886616
3135709
583771
3276136
2493973
910647
1952626
692103
1061907
691487
1546904
2654422
3135698
449844
590474
966288
1722886
3291069
745641
2531258
3459824
1973791
521328
96426
1935844
1728426
457164
2282437
766873
2048994
1361163
2749073
363424
2590025
112278
2138329
1698483
3349460
289786
559475
130003
2080236
1079575
3167866
3195382
2746805
1717095
3402664
2191847
3097780
1083023
2192587
45321
3602460
15026
296608
2851770
123182
2547783
130086
76519
2161587
1297239
1062168
2706407
244792
2804347
2917885
3009438
944482
2820775
786268
24194
3296717
3482303
1348765
1066170
2750265
71781
2593883
3559962
2301957
1528077
1761985
2528800
2963463
924601
1986924
1601191
1669073
2419126
2172144
1120750
3549935
102690
1261863
3128515
2908643
372603
2013182
3237822
1982012
2354261
1326223
1672554
1870608
1398368
1533799
3535455
1164018
283546
2104
1646639
912117
2788115
3444060
2639258
666554
162474
1498916
3146670
1201512
2568419
838162
1332727
3373292
3218091
594784
2941242
3509120
1208172
181430
1108618
2800976
2252294
1531634
1606082
2196369
961888
2187164
1248765
2120980
851015
1989890
3517523
495410
1264293
1811445
2056063
3142198
261897
308055
2318295
2868305
2712984
327329
2979909
2810689
373712
2503775
411450
909612
567967
2941960
3006797
340036
2454403
2506710
2304483
329899
372745
3140619
2777698
3341938
2909554
2938386
1389619
525630
2623102
62248
65628
1157483
1927651
578872
3566011
3335725
2183182
3059096
2079765
69109
891878
918703
42457
1381930
3071916
2877060
20080
1996243
1780111
2459484
1133492
2284825
2451360
2101933
465169
2359268
2360043
684542
959995
3075196
84606
1550745
3044087
2220184
2165886
2094391
2528124
557977
710965
2669394
2992232
456301
751091
2986323
2203509
1580970
789486
1545295
928419
3437902
340839
775938
2777565
1372290
3144772
2212214
2051063
964365
491530
2186310
1915807
2532075
2619927
1225592
733528
226012
1374139
2617510
3409754
2296853
2256969
3615812
3173954
3343690
1369820
1365205
3252379
1750525
2110919
2320654
3482328
374163
1582069
1272831
960671
2421811
1817600
2737868
1436757
3193646
1426563
2597943
873122
3325450
613938
2426376
1752128
1267970
2171250
3488080
669334
3011970
1513936
2887399
1475557
768370
1687120
124221
2939280
574709
1973425
2267428
2358579
1518394
2337271
1403323
3023477
2169963
2121962
748965
25900
473635
3618506
2865791
2649360
305724
3097801
724950
2416441
1339759
1804008
1439984
1117443
2863336
1501236
307154
3449289
2894694
917706
1066976
2350663
974759
2282421
11058
2906860
305979
1695700
1076753
2668638
2388344
2239338
2660242
573032
1689765
2795462
850156
1658980
541894
3346804
525453
2328136
853312
1936287
2770094
2966273
3334885
857635
2044812
3470931
168829
3028474
245657
3147807
934169
695571
2099165
54227
368609
1202565
2313907
2017565
187348
252088
153404
1783948
2572430
741414
1374244
1192766
1024232
3194217
1365695
712513
2651060
1925276
807735
2015565
882340
2778357
3171218
2398804
755770
1835791
3417188
2905267
2037047
839288
2418073
2133553
1979438
1801800
555356
1479972
1974744
577147
1683628
2653904
1160128
3473995
1548482
134504
2896275
2644831
2046120
1911625
1914917
1961673
212286
1333814
1931025
2641149
3381775
65724
2529092
10687
2467404
879656
1269314
930550
1043859
2498954
2495432
300164
3088634
411901
3107736
2610834
3024260
302942
2515355
3143380
672614
390252
943016
3437213
895730
3555818
2547354
3148157
1671802
2250369
397575
3327437
924079
332584
2477524
1799049
2046569
3303302
1197064
3401254
658645
2288239
2532890
1098814
2235058
574666
27440
27727
512641
2237977
778762
589697
1178949
1267109
842016
1313162
1435439
228752
1483449
1240173
290718
1405007
2566159
3167736
1373945
601418
3521601
609958
607449
2040546
590360
1267869
2649167
2015956
2689586
234878
2896742
3181282
1467246
1296301
1893545
1015192
2609999
890215
1352263
1457830
1454059
2082108
573783
3127876
2190923
2088787
433965
1449405
1846074
2231602
520359
1043172
1319043
3155347
2776675
1819759
2289563
2761746
2717310
1060989
3117068
226863
3033816
1810810
145487
1450001
3285683
539104
3546655
2661881
1723762
2733971
443730
654509
1037602
3328374
1162049
2178719
1532575
1498291
1033633
1667838
1688316
2077524
2591991
2275716
1512165
598927
3059474
2844201
1497800
2639477
2603505
929499
2293531
918171
178009
1546290
1891791
3213358
840156
1552173
3208376
1595059
461074
57191
1746208
491630
1864065
2004134
70023
1464645
2566891
1797560
2917063
2151688
2024109
338533
3388887
129178
1601506
1423747
3499509
1388864
2514826
40203
387064
85464
1565089
3160370
723359
16924
926711
2273291
3235257
241537
3536254
2021056
1043565
808940
1340652
2372775
2096768
948341
1070952
493159
3445433
2963778
3388770
235009
2087067
3560035
1289765
2564103
1424555
2703659
173128
415673
2063352
816276
2120502
111827
2457457
1594617
3172479
2833506
2105119
3180419
885138
1422482
1795871
1548040
1147944
3272397
86190
2735541
3038911
167351
1118158
269859
727209
2250500
360448
3489967
3433301
743828
1957668
2704413
560325
2290313
1559934
2268946
1980885
726144
1835292
1253223
3576249
1299979
2348373
2813763
2804248
1633729
1926232
1808355
164505
2913401
1106717
587185
3107933
2825172
1214518
928486
2402063
2221605
926760
2843778
1165230
2622923
3338206
2845157
1002819
2941048
1944321
1692410
3516926
3162391
3548934
145304
293603
1533121
1723846
3528336
92244
1617086
2794943
1018000
1200503
1290436
2634122
1385820
1744384
3527547
1329768
1772066
163470
669664
2084757
659777
2247047
772407
1399599
1923543
2647662
720318
1950775
1992772
2160743
1397734
3177027
1107924
1909488
63245
1869308
279954
508341
3316658
470940
2607487
2057606
685060
2569842
3118129
1830958
2973748
3588627
219140
1314130
3461342
410808
2344707
305075
2130218
409521
1336747
424620
1610227
3327575
3072321
2950720
85864
2017106
1881359
429258
1084118
2706806
739695
3425986
2128034
2704657
2430608
2569623
260099
855136
1439312
2162115
136853
2558522
182149
2760416
2988360
1837713
3404048
3076934
187050
2179399
2789081
2748085
289494
150782
1660910
2914478
3033448
470361
3007717
2678461
460031
2927646
2730867
1866398
3084198
2077709
2479036
1857821
1171068
1519198
1307887
1759521
2407137
607261
876672
3189413
2053298
259396
371116
735186
1831265
3316652
1274334
876361
3525254
3597177
1898753
1439122
3247471
47289
1612823
1350687
2992476
3021764
612105
2465773
2824869
222731
241961
96221
2926668
2257023
3242534
3131446
469500
1670608
719866
3278021
3456919
2335067
956123
1976778
2947222
312949
1145905
502604
3055204
2147
1745160
23187
3364719
3384628
1139171
3572049
1106192
1359684
936322
1877459
1686232
1670334
3178734
1101372
1778545
592492
2114635
281733
3394029
2243381
355367
2152510
1389953
2206468
1388491
764064
1524160
675642
2599998
241236
2430660
508062
1415147
317499
882573
3427801
1673052
1388545
2118139
1372856
1976616
248914
1052955
1234315
3411166
2499372
2442756
2887170
3159662
506862
2138632
1012342
2767183
3427946
3457991
3327901
700748
1032862
730017
165632
1266023
308525
2946719
328695
1528000
2458943
3270584
254257
995138
2841943
817539
2920215
570803
1043310
1644842
687835
2338053
2804220
2770994
1551022
2840474
558875
2214275
49739
2473846
1714894
452954
424891
2938716
3464760
2372436
3001180
1241311
2775583
2600125
1913946
1838743
26390
2906567
396459
2682918
2045482
3392482
873517
1546863
2224171
199007
1462231
1972847
1347988
1688364
1343850
734982
858228
3411744
443199
3202058
2582936
1595194
1605175
1155132
230075
1237636
382664
933482
1598120
1043312
863892
1588066
2387641
1521899
1537555
2873038
2057151
59502
3394273
261687
3102851
2003562
1145269
2068564
3328110
2730373
2564054
1102380
1339844
3405582
449488
2781083
3311456
932440
1554384
292704
1134931
848434
1165302
2917960
2156543
1657906
1371
2428115
2677109
992966
658941
2323858
300787
1400435
1741652
1981307
3421042
437127
170223
2658056
1997922
3106852
2977158
3261002
2673443
1042280
337068
1987627
3284056
2179991
3572671
3068075
2121633
1978233
2832467
3425639
1431164
1407152
2939338
2263029
3068893
132111
2480354
2022158
851354
1208217
3559664
2557977
1390891
2525264
3592629
1330613
3568944
52466
68676
2825339
1732478
3311846
1296661
207785
2504680
1506560
1192802
3549633
1064306
331101
2188173
95355
3041540
576204
1997786
3054443
1661640
408601
1270763
2383409
3231245
311612
853945
3156169
968512
517101
1560330
2574410
3380278
2586925
3136438
3280476
430557
2729304
2107552
2407253
1118708
265231
2613468
684766
3603909
540850
540875
2069194
1508467
2653369
259942
23590
488566
3302682
1947692
3186660
3045136
1647779
3591274
2763500
1965688
288514
3388988
2436405
1384294
3510618
389094
1323143
1109920
3118626
1491053
699085
1052968
2940654
1206934
1116223
1500172
3494358
354728
573066
1800880
863548
1901959
2441706
86820
1987793
2544743
2523156
3008202
1644685
3463860
2910335
399848
1458180
1011887
828793
580082
643327
214152
1611758
152194
1965099
325752
2213631
1561858
1331355
1817771
2060235
2942989
2971795
2627408
215889
38
346732
928336
2626859
1177374
44197
1671821
582024
1872255
2697924
3291089
2845547
733677
1395141
488837
2036804
920247
1866274
1999984
1808893
3220384
3550178
715217
3201217
559776
2640107
1554669
3219886
3513340
3620900
2875837
44571
3196165
338574
3327940
1326571
198250
3231083
1469911
1988331
964974
1547934
2280237
2374855
3209820
2671738
296939
2802678
124556
2044469
597359
2527729
1411998
2175417
3048520
1992601
936375
220893
2880916
2249792
2445456
2517059
2247207
2303508
1330933
2473958
533335
2858149
424431
575753
1404223
3162216
430662
1913624
772969
3226276
2700352
3558164
458878
2245018
2078439
2001046
1712698
2997568
367492
1289859
2075072
3489388
891752
686595
2641706
2770694
3166708
986812
1998228
80955
747804
2487698
533495
2188980
950032
2873561
1821446
2530515
3455438
1377767
182400
2114355
3165491
3375005
1042912
2181708
1465607
2262464
281626
1806206
863760
1862520
3075830
3217402
1267134
1598253
449225
3246379
1017578
2999042
900461
808051
2347323
2584051
2649927
2169960
3120752
2005604
2385294
1461930
1825266
1388506
2550434
692013
1085388
2299279
2248071
2656120
2234302
900926
1405425
1394554
2792367
3344849
311451
265443
1639342
2445048
935852
973224
783732
861928
2872959
427973
2759301
1618310
1521914
433261
3166149
1189736
3535092
851643
533300
115252
1837713
421254
2387412
3334907
531466
2777399
1003474
428999
1881504
101772
2801030
905570
2670330
370585
2967131
2498749
562225
2553195
423032
1992433
2366906
626942
2125674
2774117
3206699
1248346
896299
665490
1390742
2008655
888900
2229099
1401185
3266300
1183785
2867858
1346598
3061393
720419
1955135
155196
3295744
2996829
90956
894340
173021
599494
69175
3181589
1703584
1290815
2737763
1078821
1800388
46274
1699062
128042
2500914
1894409
284629
1421264
1264056
1231626
1039563
3102976
178396
1968729
436018
2892206
1002145
3470606
2806152
1914343
568729
784368
2260252
82630
3390722
2095436
1444238
1707953
2637304
1049119
557563
1253798
934028
718500
2189284
1451381
997209
3342959
2716655
585424
1355106
1412398
2096058
3136133
3135450
1047825
719869
1442076
2669342
357086
581822
187515
2266910
1869036
1512102
692073
1319841
3574299
1890736
86993
2450689
3113387
196082
1207780
330628
2524817
109609
2760618
3309007
442025
386293
2407808
2243295
2868662
543003
1928884
507191
3218931
428394
295080
3336385
640139
1903021
514961
1102358
1422110
3366687
1000050
2397869
2325744
3111367
1387739
1709821
39795
1968045
2568593
1145961
235701
2408617
354509
2122940
1042575
3026312
3501804
1559254
1270304
1645719
453886
2008979
458271
1903322
98243
52287
746624
1102820
2805710
3292203
3370465
287715
1639995
1477405
1770187
1798004
1888382
2091108
3578257
119401
6431
2698112
2373256
128207
1980424
2626288
2251336
3281993
2842048
2649001
1289765
1796424
465051
216282
2551325
2871476
3606032
1491031
580147
2892247
3334100
2607341
1624755
2530254
329443
3217087
1616241
1928
3528916
604938
2123052
1597606
2748714
949361
1445413
2084964
730681
2023712
1461798
1711107
3558995
1980609
2397522
2475380
2981877
846884
2594732
3193362
3176342
851800
1482594
1143271
2244372
2646252
1803496
1888715
329193
965306
3383398
3577669
885627
2845235
126181
802255
640199
976210
57211
1917592
2705869
938869
1962518
2833692
2522230
432680
603929
65761
1282344
2348761
1924002
1785705
1066053
3378295
1676216
3407984
2273364
3559133
2881342
672769
882217
2508769
1097165
2990203
1219780
153683
2980352
1618920
2875221
2027085
1487203
3029303
2977160
1203625
3104555
2136512
3184696
54082
2978261
222805
3436801
3059210
327679
1575908
2301998
1713684
734183
1189577
1941590
682276
2401143
3076947
1566547
2697218
2196347
1927218
2976983
1915804
1501508
2487099
729478
339263
734522
3450587
37402
3527132
1246009
670408
2277676
1217846
3562141
2104044
2539958
1430645
1907033
722570
31745
586439
1712891
691048
2484683
997827
900737
243650
157223
2541455
2722787
158611
1674721
2297306
623295
1243331
1798581
3606357
3390164
2225856
2493117
2623560
2409514
3486628
84253
2604814
1950143
1842456
2048479
1926658
3080433
1923684
110779
2587072
1156980
277005
2842705
767357
3259635
328501
170391
537366
2110738
172878
214271
2373684
2584567
1669510
1733259
3404334
953152
1533686
2288672
534436
1662561
466871
1215155
1019705
132073
3410059
348886
3262341
1427560
69737
1364332
3405885
2713344
2158570
425900
2717869
2764502
2203251
1639011
1608847
1875100
1857208
819236
3497036
1689420
1209841
1769645
315033
2270529
1921950
3148483
2959738
2021112
132688
180266
652951
83847
1666528
1081277
168935
2036284
1110756
490751
1814365
1301756
515191
2620998
567338
2348978
1604991
2566829
425132
920841
3060221
2091718
3571667
1026035
243227
1103658
441064
1680684
886108
635130
49293
2571093
3199187
2777399
1568751
818962
3542070
3055927
1575900
2133216
2299710
1599908
1019481
1879752
1480100
2760265
2401400
2758824
547570
2828332
2057372
1514358
1237357
350855
1739563
1770670
200998
812197
732833
1484446
503582
2110398
2256392
3137702
1587420
2490346
1133416
1931545
1743269
545769
1457133
741666
3387312
3240504
1915224
391641
1482346
220681
2106112
324013
2426581
48244
1273473
2979622
1897794
1795982
2060538
1186624
3222220
3176216
3334676
481017
3086535
1545761
3324860
467535
1925645
1990437
3071084
2074985
6353
1184285
58976
2365534
2028709
1115727
1467273
1906089
1123622
3501151
2444090
665672
825721
198069
2019500
219686
2249023
1960678
2511897
2859336
1166113
10022
2070699
3155399
2978099
1879237
3523433
2909503
3183011
1496081
1806972
3385733
2659353
1993790
2379053
1399924
345788
1130498
2929341
1814689
240650
2317566
2027323
2640903
2805884
631609
2606736
1582099
1198863
2761391
2193033
2081740
3308064
3265783
867113
2280230
3441106
3385652
1511046
1407337
2354193
215864
3202873
2655096
2097029
2077623
2880257
1672259
1493613
366636
452769
893426
2933551
3257342
1249428
774376
2365554
1845654
2766897
3506621
114542
610016
2874512
963657
2843274
1027985
1528055
2676854
1794482
1106135
2260155
1792372
1131970
2266085
1868676
1116227
831441
3589973
3602567
423206
2326978
1223458
402275
1524500
2179193
518781
3055277
2936277
1543837
3475406
2543074
2872655
879335
2561957
1626014
3498496
2497804
3131326
327739
4542
848690
2535054
1978614
877303
3027149
83246
414516
2963806
2068860
1092383
3300590
1169775
1741593
3619010
1792540
807936
2532318
3041095
103740
1604428
1748806
667085
581803
5695
280784
977110
1890467
1368281
1778600
2391235
2089149
1559108
3412871
2264869
2221402
910226
785428
3036887
3101501
3215019
640719
2277414
3328719
2461841
205418
892667
212501
2337151
293502
169841
2711693
1349518
2207028
1128235
3002524
552713
984874
2169675
3436414
591021
1847554
105002
2222411
1876326
3369942
2908588
2327387
1506799
385473
3252580
3001275
3089943
112833
202364
1616108
2307893
957329
1755283
1208457
2699392
2433757
2915314
1373551
1401255
1533536
1826935
1778688
1128955
3461128
1383015
3055877
2851597
178165
3332788
546545
106217
2296865
1206665
2054225
671247
1460310
1336189
273428
3205467
1969365
1913067
1465218
2254978
2150484
1977655
1512168
3421345
3469581
826886
3136290
3419551
1963113
187405
1964006
837483
3171595
1558227
1967274
1047709
1596367
1666831
1131209
1688132
2293041
3584275
3548946
3426006
972848
3519123
2970130
281371
3431573
75996
2988300
1625513
2495100
1299063
1674921
1554437
1829686
2042226
3039818
3248703
936081
3500026
1901362
202985
601262
316081
3414289
566079
1286698
1303446
3361299
1464955
947021
2599081
2391299
1717113
1368977
1241496
3486161
162164
2950076
2442088
1289084
2169032
2564394
2619266
3227661
445484
2221634
1216383
1059981
559718
3354539
446156
3164764
3156075
2014634
2783654
2845997
170350
3490135
1274807
401526
58054
1551423
2710581
2544074
2602575
2082502
2921097
1294816
1417508
2663608
60270
2258382
596474
3288788
1511402
105186
2138194
248205
1062793
1858684
64141
3337115
2034802
1805164
968717
3508797
1000754
1239000
614647
3328396
1278702
777252
2280024
2842220
2011612
733985
820890
1057416
2729042
2877681
1166547
3092494
117330
390909
533263
3573997
864631
2705116
467974
2964219
1474872
813330
3528497
1493624
410601
76233
727904
921604
3363309
219578
2781402
1382973
3463210
1667672
2519425
1856948
3509900
327787
186747
1276147
447520
1298495
2959583
3521326
2825945
2137584
655504
1070704
2362542
85605
1721337
1917011
158951
1699867
1652301
2590955
1229241
133237
299312
350999
149335
1207343
1344805
2832836
871388
1057202
3079291
1139692
1996534
1977394
1637003
814448
2540953
3549168
3115650
1062571
2698505
3444436
1175849
2191773
2696895
2708687
2421347
3565051
3570297
2851582
2006357
2851804
3050859
1643089
1632695
1141278
2238734
3201934
1017945
822288
334651
2348965
1215765
3503945
3189240
3069871
705399
1997076
2611043
804285
2786773
1278246
2678198
1857710
2360409
880172
2123435
2744047
8995
1626695
637045
2385720
2247574
2906110
2829981
1660116
1964325
2703522
3147531
891233
1540694
2285387
3098216
2021254
2662615
425815
3161058
379743
2859856
2773035
2968880
2240184
2321360
1030215
3251307
1356661
132601
2662888
2352204
517523
616308
476468
2663834
514780
2421010
3330352
987743
89614
1839980
174416
2711237
788689
160391
2530819
1665590
2723713
3003640
3197727
1913520
3200750
1345744
1235740
3623007
1723306
2434549
452961
2713337
1257440
3467678
1394207
3387475
2854650
973417
22824
780946
2361667
3591754
480212
1844654
1479869
2704614
3587838
2715915
1374543
208168
2036177
279548
3199070
560483
476
2758491
22834
2819244
973265
2597375
2161020
1635189
1888653
1880468
805837
1336694
1392166
564654
1546947
1636549
655928
1085445
487255
2691849
1867051
2837277
888539
3477989
1522677
611813
574656
3543681
1848104
2511388
2051281
3082415
3068505
522352
3417671
184336
936834
1095026
2952563
2619530
1993373
1612040
2089494
2328979
1731954
283706
2404686
1639684
174748
1413073
3098181
759310
3556635
2408341
1572044
1856725
46669
2009106
2425643
2474927
2406666
2934825
1242995
323833
1526378
3086528
2746021
2541849
175698
3261981
1519603
126038
1075754
3296821
522281
927017
1445827
1434817
1098413
3620201
998828
1874123
3104621
3266415
224446
1855638
2530607
2386611
1527905
1960671
1659093
1434820
1947074
2644898
2867020
1725536
2002494
1870269
1402876
2318879
768463
1057898
989742
1677587
684727
1038955
720925
3224488
693223
2316478
1058229
1114538
3473923
3369426
811145
1794302
3108238
2385685
1929221
671107
2448386
2192667
710117
437712
3256298
2143367
266754
1306464
2351897
3389544
1217856
2278452
2737882
2988826
809373
1156066
3463370
2180940
1096059
959184
1938391
3058817
2611576
1918277
2926413
110154
2603680
2844417
3416211
1298579
838701
1906022
1260775
3372685
1619538
290249
1352369
2669623
1076668
883734
3445959
1479099
718774
2870233
3047094
1723652
3458566
3046230
716958
391223
1919157
190429
184782
506780
735007
1030469
2796215
1575472
2177146
1124817
2993218
2303503
162557
590102
1638611
3118729
2556250
2670917
1948522
3187163
511733
710521
1879634
2441684
679618
2340557
3614785
3091211
1418805
2754573
2940468
792886
2964796
759409
291844
2381443
958042
324947
921863
2341422
104362
3577178
2357803
2992554
342022
1227034
1069087
1609297
3070995
1636053
2048418
704439
1506815
3496137
1494611
1361776
834653
2857227
2089934
3082503
2588208
1945215
1951202
1299791
1656807
3242709
2426469
1382394
3335555
215153
161979
1537246
189757
2444363
3565582
942083
1303366
876452
2635640
792405
1743677
3499527
2156578
378955
2647190
665374
1683227
1381952
1525017
1234841
1947379
952722
647601
1431738
2463642
166312
1481433
971266
1481979
970304
631596
2558953
2726040
2564936
3444779
1739185
316256
1236369
1502228
640199
2733275
335225
1860159
3191403
1945936
2485817
1317938
307317
2662230
3454808
2138291
2726877
714479
3051237
800339
172001
3521504
2844323
3144623
116918
2999528
1117429
1795179
30757
2574491
1855599
1361320
2793297
3412028
279741
1550434
2551415
2991098
953640
2670003
1525537
648917
139606
1988516
1931874
764026
86755
3343488
1617664
786297
3331254
204761
1406992
290491
1748933
3564874
1276913
2333562
3600283
1841629
657428
1311876
776440
726646
2130806
3276448
487295
2179328
1278934
1066091
1381991
1430605
1687831
1413011
3523527
1866194
2494813
1095339
3608718
1079158
1074881
1976873
397364
2622500
1449238
1345005
1609239
661158
867090
3418973
549276
3622288
1852595
2278966
1196390
1364577
1099051
362682
741618
3001681
3314518
2644089
3266300
942563
299937
2240033
690489
879695
127910
175812
3609333
1388750
84270
2879566
403379
218098
217460
3605581
1926923
3149225
656599
198470
454239
2606086
1422693
2821827
3020658
3446960
3085944
1185457
1732112
1391829
2114303
2128224
828235
2469441
443765
349691
14103
1339721
2194729
3283924
2101161
1710683
809314
944983
2408448
1922543
2716508
1469845
814046
3441434
54408
3234897
2054935
3620461
1697989
1102156
914431
2170073
3542077
615138
1175229
539258
2489927
926868
543812
2602656
2727530
2877197
1995418
2942497
773863
2412872
2265885
1501587
3409864
714061
455305
540482
1429545
3330588
3480734
126581
2956459
3116498
158395
2099295
3136034
341929
3569402
1580448
1483224
1606800
2060655
2439037
559115
2200136
1150506
266904
3622739
564395
2523264
2851437
2305083
1471088
2334721
755421
3187335
2990513
1441139
1780332
3152958
1340356
1578312
211898
2719347
1719602
2143362
1168702
2522913
275231
3105947
1178400
3506861
1113057
2911599
3621924
2703931
2944699
1701987
926957
408296
897878
2873502
3625154
1452996
1787959
88509
2340721
2947080
2399722
3151384
3047951
2345142
1093234
1964830
754127
2026652
721639
2385411
2971704
145818
2647709
3323119
501263
1265413
1237825
1767894
3565571
1285155
2333819
3002310
2088752
2904993
1623009
76805
841806
2789392
3192933
1830593
250239
1404459
2702662
2310225
1141715
813115
1454874
1017445
1477663
2080900
3522437
1899753
3615966
2307422
2014936
903460
3413332
2540825
1043695
3363704
758918
2434182
2549087
2018239
1511348
3581536
132103
1948443
3130557
2635498
87486
978612
2970731
2708087
3395030
182475
1992070
1932744
2386269
1608335
2584176
958582
1151031
1644138
2407506
679494
2339270
1337018
1706786
526822
2287070
609028
925647
3122165
3081097
3258740
1726771
2136318
2842866
1627382
3335497
2751978
2293801
1222045
1830082
1474863
1331265
306664
431389
927896
1129531
3552739
1025834
3282898
531607
557498
1459592
2906720
2602499
2911067
3488111
2713101
2823355
1906315
179673
3019646
1839656
2339189
1078181
2850812
2963680
701713
1120008
2583120
2531187
876702
1744340
1140859
2532799
976329
1661118
314738
1712283
1926611
1380350
1890122
885944
1354470
2324250
2363349
2401004
1022852
2407066
2896060
2911454
638597
2255381
3537105
3493860
514046
1881364
3523716
113919
2512780
2823403
152620
2198993
2170747
563883
3585616
1831661
133561
3045102
1988401
1059158
379684
471947
1768914
2135780
424301
2567695
1287677
1915740
2812598
1058446
2901767
2169016
2072968
781179
1644792
2442135
567238
1025867
2608963
2550999
857993
3526788
1345825
1802275
118221
3119737
1374558
1585205
417635
2005821
2007447
2199261
2689694
998884
1987708
3621946
674184
488274
1722255
2281810
3143670
3415673
2547799
2779821
1681975
219752
172660
2527679
214682
1271472
2089176
428275
2858537
3124284
2082815
3050566
2172391
612671
1100609
949121
3272295
2983507
2471698
1725016
2112977
3385092
3038427
998961
1170341
844941
3267164
3442949
3080064
2554310
1001047
3007534
3341073
798911
1126887
1053958
3376318
2461673
2957289
3216336
2373888
2966408
742232
619366
1882955
1426033
2707440
3449784
31750
2171508
981624
2662542
895165
1569567
415877
79193
362594
178413
994952
3334882
425016
3284953
74702
282726
1852511
1366030
1135548
3513294
2416565
3232341
103004
3243724
2961968
2211277
2996167
2016378
3297963
2843701
2963267
3529946
2761320
1076106
1949643
1822811
3157664
3353027
444096
238977
1986410
1330667
385787
3578259
489362
1326684
2565557
1886391
235955
2304222
1219121
2509233
3188250
2118671
1682898
1729174
1741729
3306375
362515
2062357
2425695
2975487
210729
3488688
218179
1047720
649288
1693001
2720420
2129900
3230437
3569021
3552478
334126
840722
577092
2153399
2150411
2101901
2827286
1221373
2331983
221865
2836107
1514187
2037734
454865
3083340
3038229
596939
992479
502868
2387173
2041010
3158369
2890535
1813395
2656933
2393274
3024229
853814
3094269
262006
1563889
1314100
1832951
977601
994599
3270118
1379022
2870976
1439872
3004559
3180552
2970470
3584900
1644557
2419356
596858
2439869
3191737
1463628
3366212
3254466
580010
888171
266449
2339204
3238243
3621431
2659440
510372
79604
2810097
1029752
768320
3101375
1073117
1703754
501621
1637444
2156008
3401363
1386169
3273935
2133509
1441115
3327812
3580961
558655
3498946
2283572
2075039
3205138
2190268
643481
1941922
2677008
1438708
3447380
3049263
532708
2252398
2091475
1297431
2887368
980269
3104951
1696445
3616940
1153196
1170957
3590540
2723561
831684
1107127
670927
2507670
2052806
1116167
2292207
3454944
2703137
3146749
1697327
1061348
2677993
2795953
806731
312592
1066699
335110
2930165
684790
3343754
3043760
1290812
2436804
1080259
697234
1511628
583937
2467283
2328060
3601020
2336792
1831733
1123972
1395645
2981916
432329
2234524
1955228
3308611
2325831
379555
3517756
3561349
976648
625000
2433662
3549447
495005
1371857
1948827
338849
63866
1251335
852941
943219
1639542
687519
2408205
2159758
382983
3105603
2339918
2468153
2997134
2959038
1727632
303648
259621
3020508
2269071
2572838
1785766
2210698
1570099
2306357
2862138
527507
472248
207638
2187655
3144249
3327725
1779067
2679297
1578194
713981
733586
300514
366173
2266070
3322131
1168578
1452284
1782088
343091
1234909
1948906
1856530
1760818
1888057
1638096
633341
182366
1969559
118789
3214905
1441839
1666479
2103675
780636
3393555
3156778
1566342
302420
22435
2553737
3495499
3205539
3476995
472840
997046
2302619
3211559
3005441
1022954
742141
3027010
94399
2450770
2440490
3003589
2993202
1183963
573260
2609035
2975454
2620510
409760
3033396
314441
848132
1719235
1086956
101168
3391993
3352871
412527
1487087
3144780
188040
1367925
2546110
1809279
708698
1297422
444640
1378615
2645656
1880253
2770796
2319255
187427
3543745
1852330
2424366
1302867
2826029
3532715
1683142
2985060
356804
2486531
2422912
3605116
1977808
3106858
244019
1215708
1834391
2368871
3602254
832117
1028594
2732689
465049
1039111
2329929
442785
2111990
226912
926075
283524
1193407
1420913
1556046
2784089
1878946
2060273
1381193
1198485
3121135
536977
3293450
18286
1276202
2155757
853836
3565323
1830702
1252315
2757961
2170422
3321254
2099764
491499
1187656
1827489
258766
309501
3004309
765262
718472
3544403
1344549
2003440
2731763
3503858
359512
2735144
355059
181989
2222104
631749
2687068
1179823
3525766
2833191
302772
2639863
843957
2545565
1910157
1960264
996834
1839573
2249563
2260417
2593449
883919
2983030
1382117
1397319
2354007
2066668
3267780
3486728
37134
937906
973191
1625786
1358679
1147398
3105150
3264848
2719735
722893
951044
3593147
711093
652158
2875049
2165427
762731
2783345
912333
2657808
2627502
2146972
1109118
3112173
189954
1831397
3531969
1319451
1104657
198855
1510304
2995445
1086248
1604395
1602061
3501638
2096069
1891718
284716
1149397
1304540
1642679
1507763
3447104
1583817
1477004
2313824
3487305
1007617
3426085
990286
3010760
11492
1722666
3150226
2963046
1684154
3185342
1426573
3104929
3020541
2478356
3101599
956871
2013464
752930
1295167
1216568
1641475
500770
719039
1562899
387641
2103487
1707927
1001496
3377261
3163976
1840705
2533638
2878257
3189928
1149624
2351862
50223
2287024
2581045
3217248
222214
1692503
3569284
1295949
3045283
395387
1113666
1886190
1609209
1145454
3095464
175638
2446782
3145191
1442990
306400
2922728
3216857
2316446
452401
1164314
787128
3023187
1785310
1289483
2565380
1812701
771093
806020
2580774
1436077
2309207
3413400
1353485
1296422
211204
696573
669789
2162956
492424
1884735
1039969
1188096
2178088
1002581
597782
3286096
2778366
3361974
2721853
1892142
3029898
2152889
2670412
1717851
421623
1629316
1727862
2223128
1179004
1076400
369880
1426584
573789
1952261
3465255
767278
1033329
1350997
71200
1917199
3480394
2981225
3325414
1064708
2499159
1333185
1911
1529241
3073192
3032521
1546075
237493
1583910
1212654
1467251
498771
2702007
851900
1279857
153302
144165
1378149
3169779
2008013
2143330
1620497
2098708
282481
3136938
3209537
2581859
3202436
2086957
3456379
1211400
508639
2303188
613482
684229
1219756
3545909
1825067
1976539
105890
3587891
3467992
1605854
1163763
1021107
239176
1085159
2913438
677091
2123041
2655436
2608014
617714
1221619
1067872
2996082
291797
2439993
2401077
1260527
2317135
1645385
2936161
852926
3239105
593871
68384
564902
799888
3192929
1552602
2043205
10115
2189803
3328093
218036
1285552
546739
2065520
324129
3494879
2631840
1911804
3034584
752538
2577005
226539
2368570
1283889
1847443
1853670
664495
1554639
1694410
1585529
1335095
3223633
2259837
1936992
2222786
480614
2052444
2140467
1705893
933261
1213
2913990
1567893
2148392
193556
1185159
2815197
3052615
2738036
136002
2140413
1105123
3318191
859355
1905927
1670706
1616408
1306898
2379347
3410964
2353889
1910712
74744
2488198
878858
1525255
2851023
3531640
1353829
130404
3162027
2992732
1785607
2870244
765501
750349
2831532
1190680
2959004
264433
2381133
2667666
2235860
176425
1584753
407613
2409763
3280550
3327874
1128671
840163
2379804
724968
2656444
595133
392275
3461648
2959217
1510735
1469396
897537
1237565
164541
3492005
2053538
2157883
2227231
2031144
3517925
3583872
1284965
679939
1725153
3053116
1562587
236113
3448128
3065847
1500858
79956
2465885
3304484
1325361
2813732
1643543
939742
463705
2142685
3362256
429837
3506164
136454
55982
1539482
2444080
912592
1116163
2956540
2388182
3129360
1894390
837887
2129071
2375446
2568710
2307028
2537195
2835959
3309448
1068959
1195806
3270168
1244029
3174850
3429252
2538873
2400152
1737432
440145
3029799
680286
430977
1816624
3195134
1595967
3071664
2482158
350170
2080282
316699
1054830
684190
2301884
2837749
1741222
777642
620185
1528964
996829
1420472
1045544
2365162
3256125
3030770
1130257
186380
639899
3371926
1536670
201937
315904
2287196
2271001
1027531
2145402
611837
75173
193218
1112020
3602587
1131613
2625258
1609755
2950730
92487
2692721
2481512
3119323
1190930
3509509
988418
2107980
185478
1679924
3476028
1153345
2951598
3041385
1222776
2355370
1714590
356260
3605223
448878
361839
2410480
2120487
1445797
2092297
2234455
3402254
3593097
2983134
69352
2430660
3294815
3491952
178631
1240600
2943321
2693329
375509
220255
3114422
940210
3421867
654291
2298397
635814
1590092
2531184
571807
1722591
1913552
71721
2919670
545971
183780
1983004
1059851
3082431
2316985
1321019
1873406
3563919
1292479
279986
784719
3126682
506239
1356131
947526
1489836
1046077
1942575
610708
644626
573665
1026204
80173
21226
1056173
764310
2921810
1852330
2528889
2464995
2252681
666620
957011
2254658
2142919
1592861
3624369
2364185
3084784
575018
2006215
1566103
2938627
3274012
1616502
3098237
2763119
16452
3376551
1304834
1001253
2829082
123062
2820252
1703554
906804
3556070
16607
1413665
1709
159749
3331915
1360112
1554758
1722682
2037366
3082151
1881931
3272527
832890
129898
2860504
1259199
3378454
912067
360509
2083369
30543
1641757
1556122
241443
1705828
1649685
2431925
1532128
3012240
16091
3467983
2284500
1292954
2275390
961088
244807
901327
1715435
3431651
980018
1057494
2554533
34146
3017621
945332
3210002
1405661
2376789
493030
1917259
3161388
3430438
1785549
1960473
3437590
1029465
1660897
415800
2722358
1276221
3407160
435715
491212
2672621
1919718
3379734
3289574
825187
3576318
2449491
2108972
1754012
2773459
222549
2066413
1407962
3487093
2687945
2649715
1477365
127806
684493
2157103
1410065
1092272
28689
1145919
3540837
3403058
245518
312493
2169291
2927703
2029857
865119
2804009
1439547
2372526
1261366
3122204
2243838
179532
1080259
2228512
1414539
160016
412677
390603
3247373
1838123
96900
1063206
2262147
67446
2854460
2135418
980564
3201339
2362272
151996
1481734
3248226
1170554
3166702
307960
1184980
1174856
3360053
1983642
3447859
1506431
1417735
3312806
169542
733528
3131576
1136524
2065651
2350030
715139
247935
2916097
2874392
2438315
1194385
2922033
1271177
2523646
1675777
2693549
1423495
2533344
2615819
572521
705544
677916
2105664
2559773
1599391
1434153
1231913
989762
530256
3027131
835554
2483148
2456321
588487
2521043
850129
1528732
1126205
1729681
2853215
539110
2530539
1253151
957661
1693302
396399
646596
2327872
2738066
1495746
2012293
524307
1676290
3249024
3131355
19119
2851437
1197387
3211560
3383829
2661420
2667758
2368342
1564161
2021032
2336564
1331159
832491
1411924
2576840
805117
1815410
3246400
1779486
398855
1246795
871758
778490
3497921
3198959
2324556
93129
2563402
3233963
494795
1288994
1811876
656069
1943294
321392
1126670
52418
1363490
84013
651006
842067
1125771
1213162
1481719
659312
2755706
3375569
1475044
2492441
477669
2199884
472336
1682054
1050064
2529614
998212
2419166
1946599
1419725
1015492
885962
831052
452012
3285093
3114382
991812
326073
1769359
347695
823587
671797
1801583
198762
76761
384495
1580950
1319927
807923
3486091
1079979
2200194
19400
2046873
2574643
3559227
2290674
1476128
2114201
174396
152554
323295
1126703
1293722
1698070
593486
3617701
1674232
1689721
914133
2322189
2825680
1564829
1545926
1992738
325850
1163639
2150101
3318708
2338304
202660
614627
925790
3596939
297537
3288101
1454248
2575710
2569944
696670
3199826
233286
118078
1113380
3225834
2083010
1508102
2801477
455994
3497239
2821554
3576099
757119
339674
2121521
2098367
183813
203313
3156561
654057
2923552
1279955
469855
2319748
1422666
2236760
1673149
1791958
3119067
3497354
801426
2958489
2289017
2757778
3551815
3308446
2307945
1521984
2179084
1296413
1756633
2898873
593782
2494005
853890
183102
2863127
3255936
3020493
844805
82652
1572426
1741911
2051085
3383270
326591
2340433
1562522
1265912
1041304
794086
1877250
1748251
2207618
2195503
2733236
1196531
1121029
1865490
3107544
579733
1826849
7166
64962
184259
786101
3461383
2329343
290019
2689616
1304580
3402273
1276783
1540608
146167
3212817
2224894
2758507
1145459
331453
2677036
986810
2531055
2429889
185673
114808
1078552
3218510
3532479
2669292
538525
1585814
1919771
1523812
3621084
3386024
699243
2120360
1538653
137681
288987
2259811
1818161
1028809
2882588
878474
3423175
2512520
59841
1640370
2742211
387045
974374
1856112
1207184
1928486
2087509
3220456
3002945
2538433
2745195
1722074
1334694
2878919
3227778
3390680
2304017
2936713
2516654
2345852
192515
2829557
361911
1948320
2949096
3489876
2244368
3372343
3304984
2786090
2002424
1433574
364579
1033032
417978
1144594
311356
1480599
2748323
1305981
2339220
2079537
1157765
2756597
3286928
2812407
1989862
1372410
1129460
870925
877794
359151
1608142
2727866
2557199
1277032
2379160
1323738
424187
3390218
1577601
2837771
1009567
2938779
1001626
1251636
1640229
2480428
3306402
1705473
1568128
153500
1746234
141692
827261
3248801
3196764
1318508
2055819
3544064
2722030
672777
2791717
1698617
1049869
348435
2221210
3522130
1533105
1237409
2987192
2480906
3583381
2874303
2307422
1403809
3604416
1942282
1476894
1579238
93610
1631769
1309554
3005611
1614636
1286657
497740
2931953
1416766
3001843
2728226
1234331
1555398
3463418
2923535
1878884
3263567
2607763
2223692
824528
2351046
1729939
157506
2799302
58854
3257296
1548177
508893
2710526
198108
32644
3178470
2921336
2295874
25930
204343
1917507
1734617
2492009
3581683
1506528
3250702
2083510
381990
3500454
1980177
136583
1529821
981345
431752
2349183
8678
2409932
3000666
901254
451442
392372
573706
1326078
2304703
1063874
1811944
607396
322218
697647
2976649
1628359
1303120
1554639
810482
2614997
2937380
1234165
2784322
2573360
3381092
837115
635488
1888088
1451198
2678204
2765381
235527
2067450
340523
3480801
1261621
362396
2973782
2904285
1899261
1666090
583427
209517
1548451
1188508
2885019
1354921
3605688
3460416
2170257
3329295
1245374
420868
1581391
1258582
1179202
77047
1338916
2321863
2514736
2988227
3247852
2770899
2860753
2632729
1610646
451565
2064154
1200833
2180425
2776471
1645150
406827
2496915
905964
2485530
1321516
1542447
2033762
1893858
147535
1577287
1783803
1114488
3339987
2010199
3047616
2113085
3022592
2703158
1994655
1881797
1151597
1495782
2835477
3277969
578656
856334
362458
2991075
3531853
1867426
2379851
130944
1275979
3518561
147695
2243449
2828337
2502454
2579571
2888198
1991644
401822
2118935
1385332
1199829
690222
219964
1690708
1298102
1087276
3079488
844538
1120941
3018562
1986358
1138443
2647212
689067
1125819
77326
1277611
2939375
98
1978633
3117343
203511
124769
3296059
1581102
1555020
1987979
80597
3518876
1140123
1448271
1787644
3078357
886432
393760
2498104
3569155
2599485
1221896
2209721
1565800
1564701
447432
544447
2063596
1218687
1154711
893661
556005
2713706
1757241
720452
592628
1341934
2968753
785250
16416
2882603
2847363
571177
2633442
2914601
3184040
2293418
772450
3286094
3107466
1652665
1321443
2249908
3076532
2120845
369339
2898608
154178
1199602
1735506
2533466
1540717
3177511
2124960
1411214
3463414
2631257
2590637
1006209
2060229
1060082
1109169
278912
424468
27739
3390423
1567260
3334882
2563468
1485371
3575083
2418585
2319171
903314
518358
429517
343732
1177269
603585
1057666
1714425
2056330
702844
1783190
914206
2573195
1492474
518768
1546131
201312
1340283
2315206
148382
3591043
1371845
1335590
495979
2656802
1372762
1583720
3545335
2769608
1726907
3519977
2103590
1585798
1209058
237922
3282301
950503
1051664
1199321
1043454
2135246
54659
651162
1492235
3078156
707338
3078807
2022322
2241299
717396
1952776
1419473
3382184
2993000
1224496
701304
3512327
108899
613669
3237689
1732358
1568145
687647
3529392
641309
757757
1569797
2362525
291645
1765029
1619223
1836250
1884166
1564344
3523955
3065317
594535
1806055
1532314
1501741
414250
1748886
2968968
3098482
530889
279646
2974329
1374685
2060348
2161439
803437
948644
2340957
3375661
2760248
3542334
3241300
1419839
2344673
2381734
445989
2813137
2469377
1478823
2726958
1044994
1035109
1689876
689932
3190171
1730142
3015738
3502955
1493448
1923385
3624369
2538091
365514
339460
694993
1092566
588555
3463418
1260959
319474
1604974
2850650
632617
2713501
1837057
1330037
2745288
2794364
3169641
2282365
2464361
3534327
2820396
262205
579060
2865782
1007478
3350143
760900
1849906
358580
604907
1512039
1160243
3597191
861402
3424101
2852489
1175658
1697231
3024420
2063263
3515414
2206952
2737735
1964573
2884874
46365
555566
3136505
3098519
1336318
362365
2611072
2695889
167101
1013231
1318802
2410932
464977
2737514
3090875
212132
2429923
1373871
1023867
608303
2978884
3400092
818924
3335810
2793886
3335248
624232
200461
3172200
1384724
698379
1276183
3252261
3591161
1468802
2343070
484333
2963006
1401378
1812160
281744
2780400
2304634
1902567
1668320
2580398
2789821
1353
1821133
3268295
1315778
510260
2286995
1066759
2268656
2246823
2664135
1149557
3236229
1245534
2137460
3517731
3596031
1252396
1394035
128823
2680378
3287662
2010638
771588
1859500
1591411
2603623
3012902
2727816
684346
2057882
750201
826144
1896898
2448556
2853545
1771487
2191376
927753
3552894
28350
1235048
838001
2746738
3096552
3209641
637840
1272919
2979851
3160493
1957004
1894793
2100438
1137372
2622738
551103
3286391
3303309
1709612
2250359
3114669
3280687
1799962
3594817
1748770
1548526
1021538
1349828
1479677
1999451
422230
1879512
2246856
2840016
983489
1790034
1205860
785814
139779
1165973
1736838
3181023
2361867
350502
1059506
861599
1984221
534205
3557127
2278606
2584836
3180998
3046320
1038469
2204879
2418399
2869016
2348116
961237
160415
3528769
2110500
2084055
3240778
2976634
1123749
3125346
1867996
1419027
2250384
1777254
163242
3090266
1935291
3324657
2151867
2575025
745649
2859988
3562126
744006
1060677
126546
2687074
1191711
3140014
2374581
3536414
2464934
284094
2189424
134414
2980108
2357283
2560119
882204
552775
2964828
3570492
2287912
1968847
264432
171547
2454027
191931
1626628
736905
2911239
1404198
1787695
1571457
39067
1663874
601118
1306468
3256508
3046297
1101623
209731
3192238
1752382
3412253
978573
1038187
3243829
3410815
1573437
1743078
2910887
1845729
3467737
2410288
2833322
1176295
587363
686425
1016095
1598840
1125830
2253985
881101
513744
167186
394847
313512
2117044
1326166
2793203
2015618
2643513
2573542
481055
3494742
3376810
101648
608707
2925138
1739600
3502532
2736299
1995026
2209153
697980
1691738
1269615
1602685
3274661
3491660
2905199
1740327
1570477
27939
2379125
1895114
2263023
1060411
2931243
3426651
979057
1768025
1235183
3003144
580324
1733799
3009230
2058005
520693
1541451
1292185
1085270
3525624
715952
2784436
937069
1428670
42564
1429003
2785097
785146
2654321
2285107
616319
1972346
1502704
2450685
1361136
2556633
1120061
2472244
3125774
1751087
1219967
2820044
1398539
3237403
1688499
1194951
2720522
2325585
3136077
1438824
3003804
1554316
3330062
1895899
1617814
1189699
1114833
450954
757304
3143762
1036960
3543032
1152748
1902590
1337278
298368
2106415
34568
738354
1885630
1124716
2979796
2566452
2721830
1132975
2675060
335826
2811133
1753412
1288961
579314
3171987
1009907
186392
2217403
760343
3238475
993534
2960491
1476175
957430
3263685
2413584
2158166
902028
3257622
2614876
2330029
2568330
883788
2668152
472251
3368963
2231158
800466
2910352
2658270
2620201
1413860
2741686
1334882
2960004
1501209
2608494
1465840
232369
737137
2367610
2410550
238765
1326373
1597634
2836456
219289
2150105
3497531
1042892
1774890
1023333
1036414
1953045
797374
106775
1032445
832090
264380
1682457
448380
2835475
1302567
801423
3248025
1329752
777212
207761
3289068
3096320
2993279
2972050
139105
3334500
1423877
662681
3115359
988529
500872
1902948
1501880
3440315
2060893
1109501
2538968
3049594
2495079
3529938
93144
2141887
3259486
632278
2683622
1376950
321263
205829
2299408
2100758
2469390
1521363
1297677
2469996
1287310
1505935
2988779
2853809
1858116
2358102
1105136
2910260
3278201
3410668
3343076
2750406
2209185
2601959
3033738
95398
2770517
1378999
1588498
867762
412984
560597
2016541
2629322
3461865
2440427
1788137
2216976
3593105
1128641
609470
3548185
2134464
3081404
872863
3023563
134945
1291507
1623005
783753
2458879
463646
2833423
1041963
3129150
1293245
2251846
3435800
277017
2021070
1213119
2643370
193810
1914679
130930
2301130
2759525
703726
3114144
1413413
3021408
517703
2481366
2828494
1650074
2870757
1202486
2414318
3621959
2339709
3055740
2299219
632054
3576257
1178942
3010436
3531557
98940
3241730
2324818
470600
86393
2854108
2114567
69702
1462939
2332070
570921
3501865
516336
1325462
2851683
3525089
2123496
178400
3489837
3127876
3581969
1921695
2184984
849328
359638
2004141
2061581
3005439
2369813
1325996
668509
3331039
2469374
2048970
589105
747519
2316100
1328784
984673
2034110
3062165
1035037
2324420
735742
3164842
3081092
2778062
2602825
1597172
922886
2594655
2212564
3462460
2414540
2315135
239531
31182
1666282
2173479
2240476
845109
1725062
907772
2935333
1956758
2278782
2317691
3560234
2243903
799417
761343
1423793
839366
2432045
2108815
3561695
1467156
161769
992682
1590726
1170431
77631
2179446
1183520
3363255
2991513
1591302
1579506
1350880
2878591
709597
1113087
2834184
2690791
2036557
3029649
1866194
1904335
2414760
3407959
2813342
3598563
2035721
2776713
569200
1355328
2137310
2338336
2369567
3611527
2564217
297294
1686063
1064439
2545366
1763529
37719
1774245
3539634
339854
2475750
3138945
2311397
1746302
1032783
305204
3466249
685101
3179609
344636
3180297
1645819
1338675
2079305
951689
148910
3489624
1284906
3261824
798212
3078728
2562014
3489260
3248175
3350485
2502177
539359
1767459
1397932
3025858
2208249
3389284
1852499
899232
546237
660683
74959
3241122
2292937
2176540
182491
2248053
423321
1770878
2103614
1318572
1022876
2673605
730071
1746307
1238234
3359275
1195698
2387114
2284627
3420147
1955295
344425
861160
3613025
209299
2477318
1776485
2396417
60969
3602172
1584478
9119
734018
3470764
2982277
1713101
2978464
1148825
601652
2579490
3080072
72754
731292
1505026
1728549
3342295
2432142
1473379
2453936
2022197
3195062
307873
1637314
513734
222166
1012716
1562283
1162329
3089555
886432
2960439
109510
76661
1601898
825280
3207322
138948
898090
3386622
748046
2150979
2380929
2765979
795826
1764719
1851132
2422605
3188243
1294867
2181033
3444748
380097
2708198
2619093
2908622
1891832
835335
306015
1970079
611243
2451004
1439617
842444
3396122
3319417
282298
1742743
3171468
364142
2200463
2114851
1399306
3346674
1174745
490367
2683538
2853025
140631
3001850
3283758
922443
1025950
2737834
176969
153654
3138647
2513404
1155439
43660
1702201
1850322
1668102
3338557
2933425
2311063
231271
701559
3528586
3584288
523703
44233
1672143
3404757
1305802
2913386
1729061
432599
1271180
907360
2416411
1926985
3145074
2672805
981591
1462795
2942443
2823113
3307527
396819
1885153
2190453
673959
2311451
477919
76739
566105
721133
1949668
497265
99330
164819
2176817
717162
313201
3005047
96789
1342898
2427609
2815881
154917
175806
2502860
640999
1700010
1333411
864843
325651
2831532
3122902
2356557
2043864
1346197
3527886
407678
612948
1808388
1989899
3144748
1007414
1632844
2639272
955366
3249791
1568795
752584
3529787
2368804
1809398
1986375
2859782
3202473
391556
974925
3064551
536591
3448694
3205836
2684222
1951839
3236291
3481532
1105286
331038
2571224
1167209
551965
2034479
2960386
728981
3481449
2106629
1789967
1732817
2466567
1427601
2924761
1596915
14194
830346
645594
1184035
3034211
502992
762835
2615738
1018756
266804
748813
28023
2228986
3479396
1363591
1948726
3190929
176020
2735117
3487855
3081741
2867787
1344492
1604352
3289522
2018482
3297932
1627930
874984
3078418
287994
25570
3310384
247680
3411503
931959
3357592
3380300
3575595
1163208
2462203
2520004
3573564
3531640
3554457
3271402
2480842
1964072
1580519
3190310
1691657
605757
3352799
712714
1705712
3459750
2409662
1919987
3617491
632220
335745
2030462
43808
44092
1787614
1723358
1783657
2772076
209731
111033
1432398
1098616
172795
637988
1151995
172624
1774987
1213221
3596848
175373
84273
2686424
3328019
735373
599536
3266394
2118680
1785773
497510
1206437
1687259
1388899
1553401
1476956
1528217
1955354
2197414
2562967
2017176
155634
1363231
2732966
2097353
877879
2971915
943816
2713470
2011483
1286898
3342265
581077
137353
2276147
3508274
2793538
2865578
341990
1408303
1374985
2390194
3091406
2028670
3389514
2488578
2808795
2453590
688965
787962
1035220
2584467
904323
329717
147665
2451526
2276315
614095
2161132
1318742
1040940
2158734
1705811
59353
3466268
756154
935298
2858770
3490049
1250700
162606
14072
1946121
3284305
2971332
1365494
119217
3115882
365268
598354
2127122
1604799
2951588
362356
1544639
3538704
2326444
3348302
168217
2428343
2418182
1406260
786120
2511972
1677686
164939
282052
2161042
1003924
3237645
2077795
1908501
1860704
1729660
804825
713848
1441038
2905313
2126863
1928549
891110
183888
2926194
1007652
986717
3208480
3362646
3572351
2463326
2661761
181616
583630
2964996
776796
3586238
2654793
1535172
2135666
299079
584796
2112666
54286
241289
199681
176896
2391282
1799901
2654208
1519573
1723660
1485381
1475106
1234407
395772
62069
2617546
1970718
2645199
567776
1578879
168711
1477262
1288622
362003
2672195
2843170
1544357
1625280
3559797
2005707
1415176
3445276
962250
3179874
1705768
1831124
3244748
2047863
1174475
1681190
2772670
485418
988330
810510
2522988
64208
2637452
1653871
3081423
1272748
233584
1028188
3517270
1970676
1951926
937867
1277746
1145009
2263500
1589608
1572137
1374967
2469504
2459859
2355136
111387
2575590
1715945
267769
1919793
656960
2718234
398258
2882591
2637120
2861454
2374565
2977401
2745258
3015975
2664692
1761619
2556600
1915094
3058970
3259412
1755649
1116742
3453218
548416
250735
3098850
1238375
2591647
1209332
3131588
482048
75271
1952332
815433
3067237
2000714
520591
3372444
1250561
2365663
221869
865417
1971583
2265592
2079102
554296
3284423
148470
2043472
2849018
526665
731587
2153570
2455683
1022857
3554398
3007261
592435
2122007
165931
3073366
748363
2300779
2439473
354862
21517
1094146
1062796
3371771
2560538
2196035
3419411
2382236
1250736
128350
2475332
901022
3427012
128016
3605847
2187318
3404966
2566642
783344
183612
687069
448020
2051698
3059629
326022
3116788
1164124
2682216
3101997
650820
1396114
3390041
1693033
1598954
1160486
2913264
3242402
2109606
3251142
1030105
876266
3248969
3087426
3182393
1399273
3209039
730345
1889574
3497823
2835609
613334
2336085
2353250
1980249
3116824
1705548
1152127
1359676
2355391
1556491
2297354
1160431
101524
2311347
2183146
1476559
3241414
2158907
1188982
218940
1439264
3299330
3315453
1093104
6127
676227
2941169
276068
3395650
692212
1154954
3447871
2651511
3592024
3361655
1637167
3019509
887844
2875148
2056233
1154608
2533391
461391
135288
2089970
2695161
678038
1328831
1270541
3068688
2807207
2420532
550003
3349526
86037
1857014
593233
540075
374043
624002
3495772
76879
3230328
662135
2249320
3281016
2072176
1466389
487764
2614585
3159438
958574
1139907
2659735
1451565
2672190
3227496
603966
3376738
3558487
2575890
1932950
3047660
441335
2948193
982315
1214028
2704482
1991977
2353302
3470533
1943885
835939
1687676
1855108
1845499
3859
964110
122780
2542334
2150946
1887835
3192610
2427450
778107
1419709
936719
2046306
134889
537879
2006033
942498
2000080
3062677
53449
582254
3165687
1803884
769584
2107483
1442958
1496181
70132
948603
1452802
1495395
71710
564899
642705
2109794
1131216
2834958
3480394
1255831
3164031
2976809
1242498
1978776
3620758
555993
1912631
723818
1242050
301063
2908781
3407024
503253
1276896
1270794
1193283
2077840
2611251
3576724
549690
3213004
2305392
213005
3509195
196035
3408246
3053345
751501
970225
2139623
1319811
156254
2263608
2558908
189358
1138077
1569734
1088082
3378346
1110681
523767
3084393
434513
2143348
3440120
2605034
1356700
1971549
1751777
2312449
843217
2273483
1790185
42281
74915
697482
1735681
319980
2332993
1744229
2320387
402489
3191887
2779968
1086285
2977905
642481
2029896
674317
1368736
1627379
1253691
3227997
2055329
1039057
2218869
388071
1037477
3513134
3458566
1776064
3042325
3241609
2832764
1213959
421929
2636743
1055917
2932281
2863797
2804189
488412
202012
991615
1743521
459349
113802
1768598
73720
216702
1545283
49559
2435792
281563
2326791
2106235
628343
533909
1822501
414107
3504847
3401972
2172998
1381558
85930
2809724
2242737
3335839
476241
777385
2676386
1576226
1239964
2466009
2434367
861478
1812531
2907303
1963842
410772
2449742
829487
1000938
3396240
927083
771910
1793398
51023
1472931
548089
759529
2030853
679188
2455008
3236550
723193
3403003
1515623
691371
3176800
7797
2942200
1748756
1636147
2515686
3371243
2689543
511421
1678507
304569
437796
3503754
577017
950306
3386575
1889136
945750
78047
1508228
2014073
1196024
1548703
2059219
3496720
1009502
1294273
2718993
3104403
707801
2057815
2566946
2204561
552609
3587713
3584202
3176435
113382
3224849
2984318
2711868
3290630
160410
1583249
2976167
91902
3469766
199070
435233
758683
14370
121804
15473
603213
3049356
358179
1611617
1920463
3279592
324418
1269575
697403
3054175
2603323
256004
1828763
541717
3217444
3170251
3150267
2854174
173576
140576
2599572
3594684
1833549
1092797
2960549
2173548
3035047
83979
1444141
1934624
1534939
1405708
1071705
3430994
1075371
2723472
1791188
2347697
829925
3496549
1874656
3319885
1979085
241604
1733987
2087148
3296117
2598967
