43.627
45.245
5.565
13.956
25.654
39.568
2.830
23.731
4.510
10.462
23.514
0.649
19.291
6.836
9.585
5.893
0.946
50.019
56.689
10.825
21.473
56.393
7.127
31.840
32.395
10.107
30.320
13.823
22.639
23.278
78.582
1.407
17.718
36.722
36.916
19.147
69.435
49.827
31.736
20.274
17.364
37.981
32.938
29.035
3.662
38.584
14.840
54.058
65.697
28.619
26.044
3.220
53.985
20.894
9.110
29.122
8.209
0.646
19.062
19.977
42.909
18.177
24.884
51.262
51.817
37.753
36.511
12.067
21.787
4.783
40.395
17.545
0.541
5.324
33.427
55.566
1.387
6.711
37.212
55.711
31.247
33.859
45.888
8.085
6.886
6.861
78.005
2.875
27.693
5.004
46.105
45.281
23.247
30.071
39.828
43.750
4.592
24.706
27.167
20.719
42.847
13.523
20.100
10.508
22.038
43.669
27.062
64.586
22.577
3.847
25.261
36.044
14.422
38.512
33.767
38.964
7.035
7.379
51.421
37.799
70.259
27.459
4.150
30.030
29.434
5.059
28.968
42.198
54.728
29.570
46.451
22.986
7.242
35.078
6.477
8.137
79.752
70.293
20.345
56.274
67.818
22.625
28.012
0.074
14.655
43.988
50.190
9.106
46.307
2.492
0.468
17.271
1.570
31.595
23.494
36.155
73.319
11.098
51.645
18.271
7.151
64.253
26.199
13.312
10.726
9.928
8.047
28.149
3.149
10.626
28.755
6.903
12.951
8.637
46.207
5.825
9.700
18.473
40.873
26.836
17.561
4.816
3.441
28.667
64.414
9.479
4.744
53.165
14.569
25.337
10.266
4.353
25.972
35.646
42.863
37.827
42.297
51.619
75.312
11.306
