113.0
61.0
155.5
114.5
197.5
65.5
49881.5
2298.0
75.5
19.5
0.5
0.0
6.0
250.5
54.0
509.5
82.0
0.0
114.0
824.0
663.0
1652.5
28.5
643.5
125.0
807.5
171.5
137.5
296.5
33.5
28.0
296.5
30.5
9.5
7745.0
107.0
375.5
27.0
304.5
137.0
61.0
792.5
189.5
785.5
952.0
310.5
8.5
212.0
39.5
25.5
698.5
465.5
199.0
96.5
942.5
342.5
516.0
296.0
194.0
190.0
13.5
141.0
669.5
97.0
8929.5
241.5
1440.5
221.5
14.5
6.5
11834.0
110.5
51.5
62.0
401.0
48.0
411.5
867.0
217.0
32.0
743.5
164.0
80.5
45751.5
373.5
283.0
44.5
8.0
186.5
26.0
34.5
1013.5
3799.5
91.0
51.5
21.0
66.5
12.0
2.5
0.5
